tb_conv.vcd
$date
	Tue May  5 13:03:57 2026
$end
$version
	Icarus Verilog
$end
$timescale
	1ps
$end
$scope module tb_conv_core $end
$var wire 1 ! s_ready $end
$var wire 1 " m_valid $end
$var wire 8 # m_data [7:0] $end
$var wire 1 $ done $end
$var reg 31 % cfg_M_q31 [30:0] $end
$var reg 1 & cfg_has_relu $end
$var reg 8 ' cfg_height [7:0] $end
$var reg 1 ( cfg_mode_load $end
$var reg 6 ) cfg_num_cin [5:0] $end
$var reg 6 * cfg_num_cout [5:0] $end
$var reg 8 + cfg_output_zp [7:0] $end
$var reg 1 , cfg_pool_en $end
$var reg 6 - cfg_shift [5:0] $end
$var reg 1 . cfg_start $end
$var reg 8 / cfg_width [7:0] $end
$var reg 1 0 clk $end
$var reg 1 1 m_ready $end
$var reg 1 2 rst_n $end
$var reg 8 3 s_data [7:0] $end
$var reg 1 4 s_valid $end
$var integer 32 5 n_errors [31:0] $end
$scope module dut $end
$var wire 31 6 cfg_M_q31 [30:0] $end
$var wire 1 & cfg_has_relu $end
$var wire 8 7 cfg_height [7:0] $end
$var wire 1 ( cfg_mode_load $end
$var wire 6 8 cfg_num_cin [5:0] $end
$var wire 6 9 cfg_num_cout [5:0] $end
$var wire 8 : cfg_output_zp [7:0] $end
$var wire 1 , cfg_pool_en $end
$var wire 6 ; cfg_shift [5:0] $end
$var wire 1 . cfg_start $end
$var wire 8 < cfg_width [7:0] $end
$var wire 1 0 clk $end
$var wire 1 = load_s_ready $end
$var wire 8 > m_data [7:0] $end
$var wire 1 1 m_ready $end
$var wire 1 " m_valid $end
$var wire 1 2 rst_n $end
$var wire 8 ? s_data [7:0] $end
$var wire 1 4 s_valid $end
$var wire 1 @ shift_cols_internal $end
$var wire 1 A win_load_en $end
$var wire 1 B sample_valid $end
$var wire 8 C sample_top [7:0] $end
$var wire 8 D sample_mid [7:0] $end
$var wire 6 E sample_cin_idx [5:0] $end
$var wire 8 F sample_bot [7:0] $end
$var wire 1 ! s_ready $end
$var wire 1 G row_adv $end
$var wire 1 H requant_in_valid_fsm $end
$var wire 8 I req_out_y [7:0] $end
$var wire 1 J req_out_valid $end
$var wire 32 K r_bias [31:0] $end
$var wire 1 L mac_en $end
$var wire 1 M mac_clr $end
$var wire 1 N load_done $end
$var wire 8 O lbuf_x_pos [7:0] $end
$var wire 1 P lbuf_shift_en $end
$var wire 6 Q lbuf_cin_idx [5:0] $end
$var wire 1 R infer_s_ready $end
$var wire 1 S infer_m_valid $end
$var wire 1 T infer_done $end
$var wire 1 $ done $end
$var wire 6 U cnt_cout [5:0] $end
$var wire 6 V cnt_cin [5:0] $end
$var reg 1 W _unused_pool_en $end
$var reg 2 X l_state [1:0] $end
$var reg 32 Y load_bias_assemble [31:0] $end
$var reg 2 Z load_byte_idx [1:0] $end
$var reg 6 [ load_cin [5:0] $end
$var reg 6 \ load_cout [5:0] $end
$var reg 4 ] load_kk [3:0] $end
$var reg 1 ^ mac_clr_q $end
$var reg 1 _ mac_en_q $end
$var reg 8 ` req_out_latched [7:0] $end
$var reg 3 a req_valid_pipe [2:0] $end
$var reg 32 b tree_sum [31:0] $end
$var reg 6 c wb_b_cout [5:0] $end
$var reg 32 d wb_b_data [31:0] $end
$var reg 6 e wb_w_cin [5:0] $end
$var reg 6 f wb_w_cout [5:0] $end
$var reg 8 g wb_w_data [7:0] $end
$var reg 4 h wb_w_kk [3:0] $end
$var reg 1 i wb_we_b $end
$var reg 1 j wb_we_w $end
$scope begin g_mac[0] $end
$var parameter 2 k gi $end
$scope module u_pe $end
$var wire 8 l a [7:0] $end
$var wire 8 m b [7:0] $end
$var wire 1 0 clk $end
$var wire 1 ^ clr $end
$var wire 1 _ en $end
$var wire 1 2 rst_n $end
$var reg 32 n acc_out [31:0] $end
$var reg 1 o clr_q $end
$var reg 1 p en_q $end
$var reg 16 q mult_reg [15:0] $end
$upscope $end
$upscope $end
$scope begin g_mac[1] $end
$var parameter 2 r gi $end
$scope module u_pe $end
$var wire 8 s a [7:0] $end
$var wire 8 t b [7:0] $end
$var wire 1 0 clk $end
$var wire 1 ^ clr $end
$var wire 1 _ en $end
$var wire 1 2 rst_n $end
$var reg 32 u acc_out [31:0] $end
$var reg 1 v clr_q $end
$var reg 1 w en_q $end
$var reg 16 x mult_reg [15:0] $end
$upscope $end
$upscope $end
$scope begin g_mac[2] $end
$var parameter 3 y gi $end
$scope module u_pe $end
$var wire 8 z a [7:0] $end
$var wire 8 { b [7:0] $end
$var wire 1 0 clk $end
$var wire 1 ^ clr $end
$var wire 1 _ en $end
$var wire 1 2 rst_n $end
$var reg 32 | acc_out [31:0] $end
$var reg 1 } clr_q $end
$var reg 1 ~ en_q $end
$var reg 16 !" mult_reg [15:0] $end
$upscope $end
$upscope $end
$scope begin g_mac[3] $end
$var parameter 3 "" gi $end
$scope module u_pe $end
$var wire 8 #" a [7:0] $end
$var wire 8 $" b [7:0] $end
$var wire 1 0 clk $end
$var wire 1 ^ clr $end
$var wire 1 _ en $end
$var wire 1 2 rst_n $end
$var reg 32 %" acc_out [31:0] $end
$var reg 1 &" clr_q $end
$var reg 1 '" en_q $end
$var reg 16 (" mult_reg [15:0] $end
$upscope $end
$upscope $end
$scope begin g_mac[4] $end
$var parameter 4 )" gi $end
$scope module u_pe $end
$var wire 8 *" a [7:0] $end
$var wire 8 +" b [7:0] $end
$var wire 1 0 clk $end
$var wire 1 ^ clr $end
$var wire 1 _ en $end
$var wire 1 2 rst_n $end
$var reg 32 ," acc_out [31:0] $end
$var reg 1 -" clr_q $end
$var reg 1 ." en_q $end
$var reg 16 /" mult_reg [15:0] $end
$upscope $end
$upscope $end
$scope begin g_mac[5] $end
$var parameter 4 0" gi $end
$scope module u_pe $end
$var wire 8 1" a [7:0] $end
$var wire 8 2" b [7:0] $end
$var wire 1 0 clk $end
$var wire 1 ^ clr $end
$var wire 1 _ en $end
$var wire 1 2 rst_n $end
$var reg 32 3" acc_out [31:0] $end
$var reg 1 4" clr_q $end
$var reg 1 5" en_q $end
$var reg 16 6" mult_reg [15:0] $end
$upscope $end
$upscope $end
$scope begin g_mac[6] $end
$var parameter 4 7" gi $end
$scope module u_pe $end
$var wire 8 8" a [7:0] $end
$var wire 8 9" b [7:0] $end
$var wire 1 0 clk $end
$var wire 1 ^ clr $end
$var wire 1 _ en $end
$var wire 1 2 rst_n $end
$var reg 32 :" acc_out [31:0] $end
$var reg 1 ;" clr_q $end
$var reg 1 <" en_q $end
$var reg 16 =" mult_reg [15:0] $end
$upscope $end
$upscope $end
$scope begin g_mac[7] $end
$var parameter 4 >" gi $end
$scope module u_pe $end
$var wire 8 ?" a [7:0] $end
$var wire 8 @" b [7:0] $end
$var wire 1 0 clk $end
$var wire 1 ^ clr $end
$var wire 1 _ en $end
$var wire 1 2 rst_n $end
$var reg 32 A" acc_out [31:0] $end
$var reg 1 B" clr_q $end
$var reg 1 C" en_q $end
$var reg 16 D" mult_reg [15:0] $end
$upscope $end
$upscope $end
$scope begin g_mac[8] $end
$var parameter 5 E" gi $end
$scope module u_pe $end
$var wire 8 F" a [7:0] $end
$var wire 8 G" b [7:0] $end
$var wire 1 0 clk $end
$var wire 1 ^ clr $end
$var wire 1 _ en $end
$var wire 1 2 rst_n $end
$var reg 32 H" acc_out [31:0] $end
$var reg 1 I" clr_q $end
$var reg 1 J" en_q $end
$var reg 16 K" mult_reg [15:0] $end
$upscope $end
$upscope $end
$scope module u_ctrl $end
$var wire 8 L" cfg_height [7:0] $end
$var wire 6 M" cfg_num_cin [5:0] $end
$var wire 6 N" cfg_num_cout [5:0] $end
$var wire 8 O" cfg_width [7:0] $end
$var wire 1 0 clk $end
$var wire 6 P" cnt_cin_compute [5:0] $end
$var wire 6 Q" cnt_cout_compute [5:0] $end
$var wire 6 R" line_buf_cin_idx [5:0] $end
$var wire 8 S" line_buf_x_pos [7:0] $end
$var wire 1 1 m_ready $end
$var wire 1 2 rst_n $end
$var wire 1 4 s_valid $end
$var wire 1 T" start $end
$var wire 1 U" window_valid $end
$var wire 1 V" last_y_in $end
$var wire 1 W" last_x_in $end
$var wire 1 X" last_cnt_cout $end
$var wire 1 Y" last_cnt_cin $end
$var wire 1 Z" last_cin_in $end
$var reg 6 [" cin_in [5:0] $end
$var reg 6 \" cnt_cin_r [5:0] $end
$var reg 6 ]" cnt_cout_r [5:0] $end
$var reg 1 T done $end
$var reg 1 P line_buf_shift_en $end
$var reg 1 S m_valid $end
$var reg 1 M mac_clear $end
$var reg 1 L mac_enable $end
$var reg 3 ^" next_state [2:0] $end
$var reg 1 H requant_in_valid $end
$var reg 1 G row_advance $end
$var reg 1 R s_ready $end
$var reg 3 _" state [2:0] $end
$var reg 4 `" wait_cnt [3:0] $end
$var reg 1 A window_load_en $end
$var reg 8 a" x_in [7:0] $end
$var reg 8 b" y_in [7:0] $end
$upscope $end
$scope module u_lbuf $end
$var wire 14 c" addr [13:0] $end
$var wire 6 d" cin_idx [5:0] $end
$var wire 1 0 clk $end
$var wire 8 e" pixel_in [7:0] $end
$var wire 1 G row_advance $end
$var wire 1 2 rst_n $end
$var wire 8 f" sample_bot [7:0] $end
$var wire 6 g" sample_cin_idx [5:0] $end
$var wire 1 P shift_en $end
$var wire 8 h" x_pos [7:0] $end
$var wire 1 B sample_valid $end
$var wire 8 i" sample_top [7:0] $end
$var wire 8 j" sample_mid [7:0] $end
$var parameter 32 k" BANK_ADDR_W $end
$var parameter 32 l" BANK_DEPTH $end
$var reg 6 m" cin_idx_q [5:0] $end
$var reg 8 n" pixel_in_q [7:0] $end
$var reg 1 o" row_parity $end
$var reg 1 p" row_parity_q $end
$var reg 1 B shift_en_q $end
$var reg 8 q" x_rd [7:0] $end
$var reg 8 r" y_rd [7:0] $end
$scope begin $ivl_for_loop0 $end
$var integer 32 s" i [31:0] $end
$upscope $end
$upscope $end
$scope module u_req $end
$var wire 31 t" cfg_M_q31 [30:0] $end
$var wire 1 & cfg_has_relu $end
$var wire 8 u" cfg_output_zp [7:0] $end
$var wire 6 v" cfg_shift [5:0] $end
$var wire 1 0 clk $end
$var wire 32 w" in_acc [31:0] $end
$var wire 1 x" in_valid $end
$var wire 1 2 rst_n $end
$var wire 32 y" in_bias [31:0] $end
$var parameter 32 z" PROD_W $end
$var reg 1 J out_valid $end
$var reg 8 {" out_y [7:0] $end
$var reg 8 |" relu_y [7:0] $end
$var reg 64 }" round_adder [63:0] $end
$var reg 64 ~" rounded_prod [63:0] $end
$var reg 33 !# s1_sum [32:0] $end
$var reg 1 "# s1_valid $end
$var reg 64 ## s2_prod [63:0] $end
$var reg 1 $# s2_valid $end
$var reg 8 %# sat_y [7:0] $end
$var reg 33 &# shifted_int33 [32:0] $end
$var reg 7 '# total_shift [6:0] $end
$var reg 33 (# with_zp [32:0] $end
$upscope $end
$scope module u_wb $end
$var wire 6 )# b_cout [5:0] $end
$var wire 32 *# b_data [31:0] $end
$var wire 1 0 clk $end
$var wire 6 +# r_cin [5:0] $end
$var wire 6 ,# r_cout [5:0] $end
$var wire 1 2 rst_n $end
$var wire 6 -# w_cin [5:0] $end
$var wire 6 .# w_cout [5:0] $end
$var wire 8 /# w_data [7:0] $end
$var wire 4 0# w_kk [3:0] $end
$var wire 1 i we_b $end
$var wire 1 j we_w $end
$var reg 32 1# r_bias [31:0] $end
$scope begin $ivl_for_loop11 $end
$var integer 32 2# k [31:0] $end
$scope begin $ivl_for_loop12 $end
$var integer 32 3# co [31:0] $end
$scope begin $ivl_for_loop13 $end
$var integer 32 4# ci [31:0] $end
$upscope $end
$upscope $end
$upscope $end
$scope begin $ivl_for_loop14 $end
$var integer 32 5# co [31:0] $end
$upscope $end
$scope begin $ivl_for_loop15 $end
$var integer 32 6# k [31:0] $end
$upscope $end
$upscope $end
$scope module u_window $end
$var wire 1 0 clk $end
$var wire 6 7# cnt_cin [5:0] $end
$var wire 1 2 rst_n $end
$var wire 8 8# sample_bot [7:0] $end
$var wire 6 9# sample_cin_idx [5:0] $end
$var wire 8 :# sample_mid [7:0] $end
$var wire 8 ;# sample_top [7:0] $end
$var wire 1 B sample_valid $end
$var wire 1 @ shift_cols $end
$scope begin $ivl_for_loop1 $end
$var integer 32 <# rr [31:0] $end
$scope begin $ivl_for_loop2 $end
$var integer 32 =# cc [31:0] $end
$scope begin $ivl_for_loop3 $end
$var integer 32 ># kk [31:0] $end
$upscope $end
$upscope $end
$upscope $end
$scope begin $ivl_for_loop4 $end
$var integer 32 ?# rr [31:0] $end
$scope begin $ivl_for_loop5 $end
$var integer 32 @# cc [31:0] $end
$scope begin $ivl_for_loop6 $end
$var integer 32 A# kk [31:0] $end
$upscope $end
$upscope $end
$upscope $end
$scope begin $ivl_for_loop7 $end
$var integer 32 B# rr [31:0] $end
$scope begin $ivl_for_loop8 $end
$var integer 32 C# kk [31:0] $end
$upscope $end
$upscope $end
$scope begin $ivl_for_loop9 $end
$var integer 32 D# rr [31:0] $end
$scope begin $ivl_for_loop10 $end
$var integer 32 E# cc [31:0] $end
$upscope $end
$upscope $end
$upscope $end
$scope begin $ivl_for_loop16 $end
$var integer 32 F# i [31:0] $end
$upscope $end
$scope begin $ivl_for_loop17 $end
$var integer 32 G# i [31:0] $end
$upscope $end
$scope begin $ivl_for_loop18 $end
$var integer 32 H# i [31:0] $end
$upscope $end
$upscope $end
$scope begin $ivl_for_loop19 $end
$var integer 32 I# i [31:0] $end
$upscope $end
$scope begin $ivl_for_loop20 $end
$var integer 32 J# i [31:0] $end
$upscope $end
$scope begin $ivl_for_loop21 $end
$var integer 32 K# y [31:0] $end
$scope begin $ivl_for_loop22 $end
$var integer 32 L# x [31:0] $end
$upscope $end
$upscope $end
$scope begin $ivl_for_loop23 $end
$var integer 32 M# oi [31:0] $end
$scope begin $unm_blk_101 $end
$var reg 8 N# got [7:0] $end
$upscope $end
$upscope $end
$scope task axis_recv_byte $end
$upscope $end
$scope task axis_send_byte $end
$upscope $end
$upscope $end
$enddefinitions $end
$comment Show the parameter values. $end
$dumpall
b1000000 z"
b100000000000000 l"
b1110 k"
b1000 E"
b111 >"
b110 7"
b101 0"
b100 )"
b11 ""
b10 y
b1 r
b0 k
$end
#0
$dumpvars
bx N#
b0 M#
b0 L#
b0 K#
b0 J#
b0 I#
b0 H#
b1001 G#
b1001 F#
b11 E#
b11 D#
b0 C#
b0 B#
b1000000 A#
b11 @#
b11 ?#
b1000000 >#
b11 =#
b11 <#
bx ;#
bx :#
b0 9#
b0 8#
b0 7#
b1001 6#
b1000000 5#
b1000000 4#
b1000000 3#
b1001 2#
b0 1#
b0 0#
b0 /#
b0 .#
b0 -#
b0 ,#
b0 +#
b0 *#
b0 )#
b0 (#
b11111 '#
b0 &#
b0 %#
0$#
b0 ##
0"#
b0 !#
b1000000000000000000000000000000 ~"
b1000000000000000000000000000000 }"
b0 |"
b0 {"
b0 y"
0x"
b0 w"
b0 v"
b0 u"
b0 t"
b100000000000000 s"
bx r"
bx q"
0p"
0o"
b0 n"
b0 m"
bx j"
bx i"
b0 h"
b0 g"
b0 f"
b0 e"
b0 d"
b0 c"
b0 b"
b0 a"
b0 `"
b0 _"
b0 ^"
b0 ]"
b0 \"
b0 ["
0Z"
0Y"
0X"
0W"
0V"
0U"
0T"
b0 S"
b0 R"
b0 Q"
b0 P"
b0 O"
b0 N"
b0 M"
b0 L"
b0 K"
0J"
0I"
b0 H"
bx G"
b0 F"
b0 D"
0C"
0B"
b0 A"
bx @"
b0 ?"
b0 ="
0<"
0;"
b0 :"
bx 9"
b0 8"
b0 6"
05"
04"
b0 3"
bx 2"
b0 1"
b0 /"
0."
0-"
b0 ,"
bx +"
b0 *"
b0 ("
0'"
0&"
b0 %"
bx $"
b0 #"
b0 !"
0~
0}
b0 |
bx {
b0 z
b0 x
0w
0v
b0 u
bx t
b0 s
b0 q
0p
0o
b0 n
bx m
b0 l
0j
0i
b0 h
b0 g
b0 f
b0 e
b0 d
b0 c
b0 b
b0 a
b0 `
0_
0^
b0 ]
b0 \
b0 [
b0 Z
b0 Y
b0 X
xW
b0 V
b0 U
1T
0S
0R
b0 Q
0P
b0 O
0N
0M
0L
b0 K
0J
b0 I
0H
0G
b0 F
b0 E
bx D
bx C
0B
0A
0@
b0 ?
b0 >
0=
b0 <
b0 ;
b0 :
b0 9
b0 8
b0 7
b0 6
b0 5
04
b0 3
02
01
00
b0 /
0.
b0 -
0,
b0 +
b0 *
b0 )
0(
b0 '
0&
b0 %
1$
b0 #
0"
0!
$end
#5000
b1001 G#
b1000000 A#
b11 @#
b11 ?#
10
#10000
00
#15000
b1001 G#
b1000000 A#
b11 @#
b11 ?#
10
#20000
00
#25000
b1001 G#
b1000000 A#
b11 @#
b11 ?#
10
#30000
00
#35000
b1001 G#
b1000000 A#
b11 @#
b11 ?#
10
#40000
00
#45000
bx F"
bx ?"
bx 8"
bx 1"
bx *"
bx #"
bx z
bx s
bx l
bx K"
bx D"
bx ="
bx 6"
bx /"
bx ("
bx !"
bx x
bx q
b1001 H#
12
10
#50000
00
#55000
1!
1=
b1 X
0$
1T
b1001 H#
1.
1(
b1000000000000000000000000000000 %
b1000000000000000000000000000000 6
b1000000000000000000000000000000 t"
1X"
b1 *
b1 9
b1 N"
1Z"
1Y"
b1 )
b1 8
b1 M"
b100 '
b100 7
b100 L"
b100 /
b100 <
b100 O"
10
#60000
00
#65000
b1 ]
b1 g
b1 /#
1j
b1 F
b1 f"
b1 8#
b1 n"
1T
b1001 H#
14
b1 3
b1 ?
b1 e"
10
#70000
00
#75000
b10 ]
b1 h
b1 0#
1j
1T
b1001 H#
b1 I#
b1 3
b1 ?
b1 e"
14
10
#80000
00
#85000
b11 ]
b10 h
b10 0#
1j
1T
b1001 H#
b10 I#
b1 3
b1 ?
b1 e"
14
10
#90000
00
#95000
b100 ]
b11 h
b11 0#
1j
1T
b1001 H#
b11 I#
b1 3
b1 ?
b1 e"
14
10
#100000
00
#105000
b101 ]
b100 h
b100 0#
1j
1T
b1001 H#
b100 I#
b1 3
b1 ?
b1 e"
14
10
#110000
00
#115000
b110 ]
b101 h
b101 0#
1j
1T
b1001 H#
b101 I#
b1 3
b1 ?
b1 e"
14
10
#120000
00
#125000
b111 ]
b110 h
b110 0#
1j
1T
b1001 H#
b110 I#
b1 3
b1 ?
b1 e"
14
10
#130000
00
#135000
b1000 ]
b111 h
b111 0#
1j
1T
b1001 H#
b111 I#
b1 3
b1 ?
b1 e"
14
10
#140000
00
#145000
b10 X
b0 ]
b1000 h
b1000 0#
1j
1T
b1001 H#
b1000 I#
b1 3
b1 ?
b1 e"
14
10
#150000
00
#155000
b0 F
b0 f"
b0 8#
b0 n"
b1 Z
0j
1T
b1001 H#
b1001 I#
b0 3
b0 ?
b0 e"
14
10
#160000
00
#165000
b10 Z
1T
b1001 H#
b1 J#
14
10
#170000
00
#175000
b11 Z
1T
b1001 H#
b10 J#
14
10
#180000
00
#185000
0!
0=
1$
1N
b11 X
b0 Z
1i
1T
b1001 H#
b11 J#
14
10
#190000
00
#195000
0i
1T
b1001 H#
b100 J#
04
10
#200000
00
#205000
0$
0N
b0 X
b1001 H#
0.
10
#210000
00
#215000
b1001 H#
10
#220000
00
#225000
b1 ^"
1T
1T"
1$
b1001 H#
14
11
1.
0(
10
#230000
00
#235000
1!
0$
1A
1P
1R
0T
b1 _"
b1001 H#
10
#240000
00
#245000
b1000000 c"
1@
b0 D
b0 j"
b0 :#
b0 C
b0 i"
b0 ;#
1B
b1 O
b1 S"
b1 h"
b1 a"
b0 r"
b0 q"
b1001 H#
10
#250000
00
#255000
b10000000 c"
b10 O
b10 S"
b10 h"
b10 a"
b1 F
b1 f"
b1 8#
b1 n"
1A
1P
1R
b1001 H#
b11 B#
b1000000 C#
b1 3
b1 ?
b1 e"
b1 L#
14
10
#260000
00
#265000
b11000000 c"
b11 E#
b11 D#
1G
b10 F
b10 f"
b10 8#
b10 n"
1W"
b11 O
b11 S"
b11 h"
b11 a"
1A
1P
1R
b1001 H#
b1000000 C#
b11 B#
b10 L#
b10 3
b10 ?
b10 e"
14
10
#270000
00
#275000
b0 c"
b11 E#
b11 D#
b1 b"
0W"
b0 O
b0 S"
b0 h"
b0 a"
1o"
b11 F
b11 f"
b11 8#
b11 n"
0G
1A
1P
1R
b1001 H#
b1000000 C#
b11 B#
b11 L#
b11 3
b11 ?
b11 e"
14
10
#280000
00
#285000
b1000000 c"
b11 E#
b11 D#
1p"
b100 F
b100 f"
b100 8#
b100 n"
b1 O
b1 S"
b1 h"
b1 a"
1A
1P
1R
b1001 H#
b1000000 C#
b11 B#
b1 K#
b0 L#
b100 3
b100 ?
b100 e"
14
10
#290000
00
#295000
b10000000 c"
b11 E#
b11 D#
b10 O
b10 S"
b10 h"
b10 a"
b101 F
b101 f"
b101 8#
b101 n"
1A
1P
1R
b1001 H#
b1000000 C#
b11 B#
b1 L#
b101 3
b101 ?
b101 e"
14
10
#300000
00
#305000
b11000000 c"
b11 E#
b11 D#
1G
b110 F
b110 f"
b110 8#
b110 n"
1W"
b11 O
b11 S"
b11 h"
b11 a"
1A
1P
1R
b1001 H#
b1000000 C#
b11 B#
b10 L#
b110 3
b110 ?
b110 e"
14
10
#310000
00
#315000
b0 c"
b11 E#
b11 D#
b10 b"
0W"
b0 O
b0 S"
b0 h"
b0 a"
0o"
b111 F
b111 f"
b111 8#
b111 n"
0G
1A
1P
1R
b1001 H#
b1000000 C#
b11 B#
b11 L#
b111 3
b111 ?
b111 e"
14
10
#320000
00
#325000
b1000000 c"
b11 E#
b11 D#
0p"
b1000 F
b1000 f"
b1000 8#
b1000 n"
b1 O
b1 S"
b1 h"
b1 a"
1A
1P
1R
b1001 H#
b1000000 C#
b11 B#
b10 K#
b0 L#
b1000 3
b1000 ?
b1000 e"
14
10
#330000
00
#335000
b10 ^"
b10000000 c"
b11 E#
b11 D#
1U"
b10 O
b10 S"
b10 h"
b10 a"
b1001 F
b1001 f"
b1001 8#
b1001 n"
1A
1P
1R
b1001 H#
b1000000 C#
b11 B#
b1 L#
b1001 3
b1001 ?
b1001 e"
14
10
#340000
00
#345000
b11000000 c"
0!
b11 E#
b11 D#
b1010 F
b1010 f"
b1010 8#
b1010 n"
1W"
b11 O
b11 S"
b11 h"
b11 a"
b10 _"
0A
0P
0R
b11 ^"
b1001 H#
b1000000 C#
b11 B#
b10 L#
b1010 3
b1010 ?
b1010 e"
14
10
#350000
00
#355000
b11 E#
b11 D#
1H
1M
1L
0@
b11 _"
b1011 F
b1011 f"
b1011 8#
b1011 n"
0B
b100 ^"
b1001 H#
b1000000 C#
b11 B#
b11 L#
b1011 3
b1011 ?
b1011 e"
14
10
#360000
00
#365000
0H
0L
0M
b1 a
b100 _"
1_
1^
b1001 H#
10
#370000
00
#375000
1p
1o
1w
1v
1~
1}
1'"
1&"
1."
1-"
15"
14"
1<"
1;"
1C"
1B"
1J"
1I"
b1 `"
b10 a
0_
0^
b1001 H#
10
#380000
00
#385000
1x"
bx b
bx w"
b100 a
b10 `"
bx H"
0J"
0I"
bx A"
0C"
0B"
bx :"
0<"
0;"
bx 3"
05"
04"
bx ,"
0."
0-"
bx %"
0'"
0&"
bx |
0~
0}
bx u
0w
0v
bx n
0p
0o
b1001 H#
10
#390000
00
#395000
0x"
b11 `"
1"#
bx !#
b0 a
b1001 H#
10
#400000
00
#405000
bx |"
bx %#
bx (#
bx &#
bx ~"
1$#
bx ##
0"#
b100 `"
b1001 H#
10
#410000
00
#415000
b101 ^"
b101 `"
0$#
bx I
bx {"
1J
b1001 H#
10
#420000
00
#425000
b1 ^"
1"
1S
bx #
bx >
bx `
0J
b101 _"
b1001 H#
10
#430000
00
#435000
1!
b10 ^"
1G
1A
1P
1R
0"
0S
b1 _"
b1001 H#
10
#440000
00
#445000
b0 c"
0!
1@
0U"
1B
1o"
1V"
b11 b"
0W"
b0 O
b0 S"
b0 h"
b0 a"
b10 _"
0G
0A
0P
0R
b11 ^"
b1001 H#
b1 M#
b1 5
11
10
#450000
00
#455000
b11 E#
b11 D#
1H
1M
1L
0@
b11 _"
1p"
b1100 F
b1100 f"
b1100 8#
b1100 n"
0B
b100 ^"
b1001 H#
b1000000 C#
b11 B#
b11 K#
b0 L#
b1100 3
b1100 ?
b1100 e"
14
10
#460000
00
#465000
0H
0L
0M
b1 a
b0 `"
b100 _"
1_
1^
b1001 H#
10
#470000
00
#475000
1p
1o
1w
1v
1~
1}
1'"
1&"
1."
1-"
15"
14"
1<"
1;"
1C"
1B"
1J"
1I"
b1 `"
b10 a
0_
0^
b1001 H#
10
#480000
00
#485000
1x"
b100 a
b10 `"
0J"
0I"
0C"
0B"
0<"
0;"
05"
04"
0."
0-"
0'"
0&"
0~
0}
0w
0v
0p
0o
b1001 H#
10
#490000
00
#495000
0x"
b11 `"
1"#
b0 a
b1001 H#
10
#500000
00
#505000
1$#
0"#
b100 `"
b1001 H#
10
#510000
00
#515000
b101 ^"
b101 `"
0$#
1J
b1001 H#
10
#520000
00
#525000
b1 ^"
1"
1S
0J
b101 _"
b1001 H#
10
#530000
00
#535000
1!
1A
1P
1R
0"
0S
b1 _"
b1001 H#
10
#540000
00
#545000
b1000000 c"
1@
1B
b1 O
b1 S"
b1 h"
b1 a"
1A
1P
1R
b1001 H#
b10 M#
b10 5
11
10
#550000
00
#555000
b10 ^"
b10000000 c"
b11 E#
b11 D#
1U"
b10 O
b10 S"
b10 h"
b10 a"
b1101 F
b1101 f"
b1101 8#
b1101 n"
1A
1P
1R
b1001 H#
b1000000 C#
b11 B#
b1 L#
b1101 3
b1101 ?
b1101 e"
14
10
#560000
00
#565000
b11000000 c"
0!
b11 E#
b11 D#
b1110 F
b1110 f"
b1110 8#
b1110 n"
1W"
b11 O
b11 S"
b11 h"
b11 a"
b10 _"
0A
0P
0R
b11 ^"
b1001 H#
b1000000 C#
b11 B#
b10 L#
b1110 3
b1110 ?
b1110 e"
14
10
#570000
00
#575000
b11 E#
b11 D#
1H
1M
1L
0@
b11 _"
b1111 F
b1111 f"
b1111 8#
b1111 n"
0B
b100 ^"
b1001 H#
b1000000 C#
b11 B#
b11 L#
b1111 3
b1111 ?
b1111 e"
14
10
#580000
00
#585000
0H
0L
0M
b1 a
b0 `"
b100 _"
1_
1^
b1001 H#
10
#590000
00
#595000
1p
1o
1w
1v
1~
1}
1'"
1&"
1."
1-"
15"
14"
1<"
1;"
1C"
1B"
1J"
1I"
b1 `"
b10 a
0_
0^
b1001 H#
10
#600000
00
#605000
1x"
b100 a
b10 `"
0J"
0I"
0C"
0B"
0<"
0;"
05"
04"
0."
0-"
0'"
0&"
0~
0}
0w
0v
0p
0o
b1001 H#
10
#610000
00
#615000
0x"
b11 `"
1"#
b0 a
b1001 H#
10
#620000
00
#625000
1$#
0"#
b100 `"
b1001 H#
10
#630000
00
#635000
b101 ^"
b101 `"
0$#
1J
b1001 H#
10
#640000
00
#645000
b110 ^"
1"
1S
0J
b101 _"
b1001 H#
10
#650000
00
#655000
1$
1T
0"
0S
b110 _"
b1001 H#
10
#660000
00
#665000
1T
b1001 H#
b11 M#
b11 5
11
10
#670000
00
#675000
b1001 H#
10
#680000
00
#685000
b1001 H#
10
#690000
00
#695000
b1001 H#
10
#700000
00
#705000
b1001 H#
10
#710000
00
#715000
b1001 H#
10
#720000
00
#725000
b1001 H#
10
#730000
00
#735000
b1001 H#
10
#740000
00
#745000
b1001 H#
10
#750000
00
#755000
b1001 H#
10
#760000
00
#765000
b1001 H#
10
#770000
00
#775000
b1001 H#
10
#780000
00
#785000
b1001 H#
10
#790000
00
#795000
b1001 H#
10
#800000
00
#805000
b1001 H#
10
#810000
00
#815000
b1001 H#
10
#820000
00
#825000
b1001 H#
10
#830000
00
#835000
b1001 H#
10
#840000
00
#845000
b1001 H#
10
#850000
00
#855000
b1001 H#
10
#860000
00
#865000
b1001 H#
10
#870000
00
#875000
b1001 H#
10
#880000
00
#885000
b1001 H#
10
#890000
00
#895000
b1001 H#
10
#900000
00
#905000
b1001 H#
10
#910000
00
#915000
b1001 H#
10
#920000
00
#925000
b1001 H#
10
#930000
00
#935000
b1001 H#
10
#940000
00
#945000
b1001 H#
10
#950000
00
#955000
b1001 H#
10
#960000
00
#965000
b1001 H#
10
#970000
00
#975000
b1001 H#
10
#980000
00
#985000
b1001 H#
10
#990000
00
#995000
b1001 H#
10
#1000000
00
#1005000
b1001 H#
10
#1010000
00
#1015000
b1001 H#
10
#1020000
00
#1025000
b1001 H#
10
#1030000
00
#1035000
b1001 H#
10
#1040000
00
#1045000
b1001 H#
10
#1050000
00
#1055000
b1001 H#
10
#1060000
00
#1065000
b1001 H#
10
#1070000
00
#1075000
b1001 H#
10
#1080000
00
#1085000
b1001 H#
10
#1090000
00
#1095000
b1001 H#
10
#1100000
00
#1105000
b1001 H#
10
#1110000
00
#1115000
b1001 H#
10
#1120000
00
#1125000
b1001 H#
10
#1130000
00
#1135000
b1001 H#
10
#1140000
00
#1145000
b1001 H#
10
#1150000
00
#1155000
b1001 H#
10
#1160000
00
#1165000
b1001 H#
10
#1170000
00
#1175000
b1001 H#
10
#1180000
00
#1185000
b1001 H#
10
#1190000
00
#1195000
b1001 H#
10
#1200000
00
#1205000
b1001 H#
10
#1210000
00
#1215000
b1001 H#
10
#1220000
00
#1225000
b1001 H#
10
#1230000
00
#1235000
b1001 H#
10
#1240000
00
#1245000
b1001 H#
10
#1250000
00
#1255000
b1001 H#
10
#1260000
00
#1265000
b1001 H#
10
#1270000
00
#1275000
b1001 H#
10
#1280000
00
#1285000
b1001 H#
10
#1290000
00
#1295000
b1001 H#
10
#1300000
00
#1305000
b1001 H#
10
#1310000
00
#1315000
b1001 H#
10
#1320000
00
#1325000
b1001 H#
10
#1330000
00
#1335000
b1001 H#
10
